ADVANCED
AFFILIATED
ALLIED
ANALYTICAL
APPLIED
ARTIFICIAL
ASSOCIATED
BASIC
CAPITAL
CENTRAL
CHEMICAL
CLASSIFIED
CLEAN
COASTAL
COMMERCIAL
CONNECTED
CONSOLIDATED
CONTINENTAL
CONVENTIONAL
CORRECTIONAL
CREATIVE
CRITICAL
CUSTOMIZED
DIGITAL
DIRECTED
DIVERSIFIED
EASTERN
EDUCATIONAL
ELECTROCHEMICAL
ENGINEERED
EVOLUTIONARY
EXTENDED
FACTUAL
FEDERAL
FINANCIAL
GENERAL
GLOBAL
IMPERIAL
INDUSTRIAL
INITIAL
INNOVATIVE
INTEGRAL
INTEGRATED
INTERNATIONAL
LOGICAL
MEDICAL
NATIONAL
NATURAL
NEUTRAL
NEW
NUMERICAL
OCCIDENTAL
OPTIMAL
ORBITAL
ORIENTAL
ORIGINAL
PLANNED
PROFESSIONAL
RATIONAL
RECONDITIONED
ROYAL
SPECIAL
SPECIALIZED
SYMMETRICAL
TECHNICAL
TRIBAL
UNITED
UNIVERSAL
VERTICAL
VIRTUAL
VISUAL
WESTERN
ZOOLOGICAL